…
# Remove redundancy
sample_metadata <- unique(sample_metadata)

# Take a look
sample_metadata
~~~
{: .language-r}



~~~
# A tibble: 22 × 9
   sample     organism       age sex    infection   strain   time tissue   mouse
   <chr>      <chr>        <dbl> <chr>  <chr>       <chr>   <dbl> <chr>    <dbl>
 1 GSM2545336 Mus musculus     8 Female InfluenzaA  C57BL/6     8 Cerebel…    14
 2 GSM2545337 Mus musculus     8 Female NonInfected C57BL/6     0 Cerebel…     9
 3 GSM2545338 Mus musculus     8 Female NonInfected C57BL/6     0 Cerebel…    10
 4 GSM2545339 Mus musculus     8 Female InfluenzaA  C57BL/6     4 Cerebel…    15
 5 GSM2545340 Mus musculus     8 Male   InfluenzaA  C57BL/6     4 Cerebel…    18
 6 GSM2545341 Mus musculus     8 Male   InfluenzaA  C57BL/6     8 Cerebel…     6
 7 GSM2545342 Mus musculus     8 Female InfluenzaA  C57BL/6     8 Cerebel…     5
 8 GSM2545343 Mus musculus     8 Male   NonInfected C57BL/6     0 Cerebel…    11
 9 GSM2545344 Mus musculus     8 Female InfluenzaA  C57BL/6     4 Cerebel…    22
10 GSM2545345 Mus musculus     8 Male   InfluenzaA  C57BL/6     4 Cerebel…    13
# … with 12 more rows
…
# Remove redundancy
gene_metadata <- unique(gene_metadata)

# Take a look
gene_metadata
~~~
{: .language-r}



~~~
# A tibble: 1,474 × 9
   gene    ENTREZID product     ensembl_gene_id external_synonym chromosome_name
   <chr>      <dbl> <chr>       <chr>           <chr>            <chr>          
 1 Asl       109900 argininosu… ENSMUSG0000002… 2510006M18Rik    5              
 2 Apod       11815 apolipopro… ENSMUSG0000002… <NA>             16             
 3 Cyp2d22    56448 cytochrome… ENSMUSG0000006… 2D22             15             
 4 Klk6       19144 kallikrein… ENSMUSG0000005… Bssp             7              
 5 Fcrls      80891 Fc recepto… ENSMUSG0000001… 2810439C17Rik    3              
 6 Slc2a4     20528 solute car… ENSMUSG0000001… Glut-4           11             
 7 Exd2       97827 exonucleas… ENSMUSG0000003… 4930539P14Rik    12             
 8 Gjc2      118454 gap juncti… ENSMUSG0000004… B230382L12Rik    11             
 9 Plp1       18823 proteolipi… ENSMUSG0000003… DM20             X              
10 Gnb4       14696 guanine nu… ENSMUSG0000002… 6720453A21Rik    3              
# … with 1,464 more rows, and 3 more variables: gene_biotype <chr>,
#   phenotype_description <chr>, hsapiens_homolog_associated_gene_name <chr>
…
~~~
tidySummarizedExperiment says: Key columns are missing. A data frame is returned for independent data analysis.
~~~
{: .output}



~~~
# A tibble: 32,428 × 1
   .sample   
   <chr>     
 1 GSM2545336
 2 GSM2545336
 3 GSM2545336
 4 GSM2545336
 5 GSM2545336
 6 GSM2545336
 7 GSM2545336
 8 GSM2545336
 9 GSM2545336
10 GSM2545336
# … with 32,418 more rows
…
~~~
tidySummarizedExperiment says: A data frame is returned for independent data analysis.
~~~
{: .output}



~~~
# A tibble: 22 × 2
   .sample        n
   <chr>      <int>
 1 GSM2545336  1474
 2 GSM2545337  1474
 3 GSM2545338  1474
 4 GSM2545339  1474
 5 GSM2545340  1474
 6 GSM2545341  1474
 7 GSM2545342  1474
 8 GSM2545343  1474
 9 GSM2545344  1474
10 GSM2545345  1474
# … with 12 more rows
…
~~~
tidySummarizedExperiment says: A data frame is returned for independent data analysis.
~~~
{: .output}



~~~
# A tibble: 22 × 3
   .sample    sex    infection  
   <chr>      <chr>  <chr>      
 1 GSM2545336 Female InfluenzaA 
 2 GSM2545337 Female NonInfected
 3 GSM2545338 Female NonInfected
 4 GSM2545339 Female InfluenzaA 
 5 GSM2545340 Male   InfluenzaA 
 6 GSM2545341 Male   InfluenzaA 
 7 GSM2545342 Female InfluenzaA 
 8 GSM2545343 Male   NonInfected
 9 GSM2545344 Female InfluenzaA 
10 GSM2545345 Male   InfluenzaA 
# … with 12 more rows
…
~~~
tidySummarizedExperiment says: A data frame is returned for independent data analysis.
~~~
{: .output}



~~~
# A tibble: 22 × 2
   .sample    total_counts
   <chr>             <dbl>
 1 GSM2545336      3039671
 2 GSM2545337      2602360
 3 GSM2545338      2458618
 4 GSM2545339      2500082
 5 GSM2545340      2479024
 6 GSM2545341      2413723
 7 GSM2545342      2349728
 8 GSM2545343      3105652
 9 GSM2545344      2524137
10 GSM2545345      2506038
# … with 12 more rows
…
> >   slice(1:3)
> > ~~~
> > {: .language-r}
> > 
> > 
> > 
> > ~~~
> > tidySummarizedExperiment says: A data frame is returned for independent data analysis.
> > ~~~
> > {: .output}
> > 
> > 
> > 
> > ~~~
> > # A tibble: 42 × 22
> > # Groups:   .sample [14]
> >    .feature .sample    counts sample organism   age sex   infection strain  time
> >    <chr>    <chr>       <dbl> <chr>  <chr>    <dbl> <chr> <chr>     <chr>  <dbl>
> >  1 Asl      GSM2545336   1170 GSM25… Mus mus…     8 Fema… Influenz… C57BL…     8
> >  2 Apod     GSM2545336  36194 GSM25… Mus mus…     8 Fema… Influenz… C57BL…     8
> >  3 Cyp2d22  GSM2545336   4060 GSM25… Mus mus…     8 Fema… Influenz… C57BL…     8
> >  4 Asl      GSM2545337    361 GSM25… Mus mus…     8 Fema… NonInfec… C57BL…     0
> >  5 Apod     GSM2545337  10347 GSM25… Mus mus…     8 Fema… NonInfec… C57BL…     0
> >  6 Cyp2d22  GSM2545337   1616 GSM25… Mus mus…     8 Fema… NonInfec… C57BL…     0
> >  7 Asl      GSM2545338    400 GSM25… Mus mus…     8 Fema… NonInfec… C57BL…     0
> >  8 Apod     GSM2545338   9173 GSM25… Mus mus…     8 Fema… NonInfec… C57BL…     0
> >  9 Cyp2d22  GSM2545338   1603 GSM25… Mus mus…     8 Fema… NonInfec… C57BL…     0
> > 10 Asl      GSM2545341    988 GSM25… Mus mus…     8 Male  Influenz… C57BL…     8
> > # … with 32 more rows, and 12 more variables: tissue <chr>, mouse <dbl>,
> > #   center <chr>, gene <chr>, ENTREZID <dbl>, product <chr>,
> > #   ensembl_gene_id <chr>, external_synonym <chr>, chromosome_name <chr>,
> > #   gene_biotype <chr>, phenotype_description <chr>,
> > #   hsapiens_homolog_associated_gene_name <chr>
…
